<?xml version="1.0" encoding="utf-8"?>
<!-- Generator: Adobe Illustrator 21.1.0, SVG Export Plug-In . SVG Version: 6.00 Build 0)  -->
<svg version="1.1" id="ICONOS" xmlns="http://www.w3.org/2000/svg" xmlns:xlink="http://www.w3.org/1999/xlink" x="0px" y="0px"
	 viewBox="0 0 1024 768" style="enable-background:new 0 0 1024 768;" xml:space="preserve">
<style type="text/css">
	.st0{fill:#1EACFD;stroke:#9BCEEA;stroke-miterlimit:10;}
	.st1{fill:#FFFFFF;stroke:#9BCEEA;stroke-miterlimit:10;}
	.st2{fill:#5A9ABF;stroke:#5A9ABF;stroke-miterlimit:10;}
	.st3{fill:#FFFFFF;stroke:#FFFFFF;stroke-miterlimit:10;}
	.st4{fill:#78CDFE;stroke:#78CDFE;stroke-miterlimit:10;}
	.st5{fill:#1298E5;stroke:#1298E5;stroke-miterlimit:10;}
	.st6{fill:#213345;}
	.st7{fill:#8C8D8E;stroke:#DFDDEB;stroke-miterlimit:10;}
	.st8{fill:#5D5E5F;}
	.st9{fill:#FFFFFF;}
	.st10{fill:#1F2433;}
	.st11{fill:#1F2433;stroke:#FFFFFF;stroke-width:2;stroke-miterlimit:10;}
	.st12{fill:#8C8D8E;stroke:#FFFFFF;stroke-miterlimit:10;}
	.st13{fill:#404040;stroke:#FFFFFF;stroke-miterlimit:10;}
	.st14{fill:#333644;}
</style>
<polygon class="st0" points="477.3,416.3 482.7,406.3 495.8,409.1 503.9,399.9 498.3,388.3 508.6,380.7 518.5,389.2 528.9,384.4 
	530.7,370.9 541.1,368.4 548.1,380.3 559.7,379.7 567,369 578.4,371.6 578.1,384.5 588.9,389.4 599.7,381.5 609.5,389 604,400.8 
	611.5,408.7 624.5,406.6 631.2,419.1 621.3,426 623.8,436.8 636.9,439.5 637.8,452.1 625.5,456.3 623.9,466.9 634.3,475.8 
	630.5,486.6 617.2,485.6 611.7,494.2 619.3,504.8 611.2,513.6 598.8,508 591.1,512.9 593.8,526.2 582.9,531.2 573,521.2 564,523.2 
	560.8,536.1 549.8,536.2 545.4,523.4 536.6,521.8 524.3,531.1 515.9,527.5 515.9,513.4 507.4,507.1 495.8,513.6 487.4,504.4 
	495,494.2 489.6,485.2 476.5,486.5 472.7,475.9 483.2,467.6 481.1,455.3 469.3,450.7 470.3,438.5 483.4,436.1 486,426.1 "/>
<circle class="st1" cx="553.5" cy="452.1" r="57.7"/>
<polygon class="st2" points="341,436.9 345.1,429.1 355.4,431.3 361.7,424.1 357.3,415.1 365.3,409.2 373,415.8 381.1,412.1 
	382.6,401.5 390.7,399.6 396.1,408.9 405.2,408.4 410.9,400 419.7,402.1 419.5,412.1 427.9,415.9 436.3,409.8 443.9,415.6 
	439.7,424.8 445.5,430.9 455.7,429.3 460.8,439.1 453.2,444.5 455.1,452.8 465.3,455 466.1,464.8 456.4,468.1 455.2,476.4 
	463.3,483.3 460.3,491.7 450,490.9 445.7,497.6 451.6,505.9 445.3,512.7 435.6,508.4 429.7,512.2 431.7,522.5 423.2,526.4 
	415.5,518.7 408.5,520.2 406,530.3 397.4,530.3 394,520.3 387.1,519.1 377.6,526.4 371,523.5 371,512.6 364.4,507.7 355.4,512.7 
	348.8,505.6 354.8,497.6 350.5,490.6 340.3,491.6 337.3,483.3 345.6,476.9 343.9,467.3 334.7,463.7 335.5,454.2 345.7,452.3 
	347.7,444.5 "/>
<circle class="st3" cx="400.3" cy="464.8" r="45"/>
<polygon class="st4" points="224.2,452 227.5,445.8 235.7,447.5 240.8,441.8 237.3,434.6 243.7,429.9 249.8,435.2 256.3,432.2 
	257.5,423.8 263.9,422.2 268.3,429.6 275.5,429.3 280.1,422.6 287.1,424.2 287,432.2 293.7,435.3 300.4,430.4 306.5,435 
	303.1,442.4 307.7,447.3 315.9,446 320,453.8 313.9,458.1 315.4,464.8 323.6,466.5 324.1,474.3 316.4,476.9 315.5,483.5 
	321.9,489.1 319.5,495.8 311.3,495.2 307.9,500.5 312.6,507.1 307.6,512.6 299.8,509.1 295.1,512.1 296.7,520.4 290,523.5 
	283.8,517.3 278.2,518.6 276.2,526.6 269.3,526.7 266.6,518.7 261.1,517.7 253.5,523.5 248.2,521.2 248.2,512.5 242.9,508.6 
	235.7,512.6 230.5,506.9 235.2,500.5 231.8,494.9 223.7,495.7 221.3,489.1 227.9,484 226.6,476.3 219.2,473.4 219.8,465.8 
	228,464.4 229.6,458.1 "/>
<circle class="st3" cx="271.6" cy="474.3" r="35.9"/>
<polygon class="st5" points="652.3,389.2 658.9,376.8 675.2,380.2 685.3,368.8 678.3,354.5 691,345.1 703.3,355.6 716.2,349.7 
	718.5,332.9 731.4,329.8 739.9,344.6 754.4,343.8 763.4,330.5 777.5,333.8 777.2,349.7 790.5,355.8 803.8,346 816,355.3 
	809.2,369.9 818.5,379.7 834.7,377.1 842.9,392.6 830.7,401.2 833.7,414.5 850,417.9 851.1,433.5 835.8,438.7 833.9,451.8 
	846.7,462.8 842,476.2 825.6,475 818.7,485.7 828.2,498.8 818.1,509.7 802.8,502.7 793.3,508.8 796.6,525.2 783.1,531.4 
	770.8,519.1 759.7,521.6 755.7,537.5 742,537.7 736.6,521.8 725.7,519.9 710.5,531.4 700,526.8 700.1,509.4 689.5,501.6 
	675.2,509.7 664.7,498.3 674.2,485.6 667.5,474.5 651.3,476.1 646.6,462.9 659.6,452.7 657,437.5 642.3,431.7 643.6,416.6 
	659.8,413.7 663,401.2 "/>
<circle class="st3" cx="746.7" cy="433.5" r="71.5"/>
<path class="st6" d="M284.4,455.8c-6.1,0-11.1,5-11.1,11.1v3.8H256v22.2h27.1v-22.2h-4.9v-3.8c0-3.4,2.8-6.1,6.2-6.1
	s6.2,2.7,6.2,6.1v3.8h4.9v-3.8C295.5,460.7,290.5,455.8,284.4,455.8z M271.5,487.9h-4.1l1.1-5.8c-0.6-0.4-1.1-1-1.1-1.8
	c0-1.1,0.9-2.1,2.1-2.1c1.1,0,2.1,0.9,2.1,2.1c0,0.8-0.4,1.4-1.1,1.8L271.5,487.9z"/>
<path class="st7" d="M570.5,450.9h-32c-2.5,0-4.6,2-4.6,4.6V476c0,2.5,2,4.6,4.6,4.6h32c2.5,0,4.6-2,4.6-4.6v-20.6
	C575.1,452.9,573,450.9,570.5,450.9z M556.8,466.6v7.2h-4.6v-7.2c-1.5-0.8-2.6-2.4-2.6-4.3c0-2.7,2.2-4.9,4.9-4.9
	c2.7,0,4.9,2.2,4.9,4.9C559.4,464.1,558.3,465.7,556.8,466.6z M544.2,439.4c1.1-4.7,5.3-8.2,10.3-8.2c5,0,9.2,3.5,10.3,8.2v9.2h5.7
	v-6.8c0-8.9-7.2-16-16-16c-8.8,0-16,7.2-16,16v6.8h5.7V439.4z"/>
<path class="st8" d="M710.9,454l31.3-30.2c0,0-18.2-28.5,17.1-26.8c25-5.1,25.6,19.4,23.3,23.3c4,31.3-27.9,17.7-27.9,17.7l-5.1,4.6
	h-10.2v14.2H728l-1.7,10.8h-15.4V454z"/>
<ellipse transform="matrix(0.6313 -0.7755 0.7755 0.6313 -37.3365 746.209)" class="st9" cx="766.2" cy="412.4" rx="5.5" ry="10.8"/>
<path class="st10" d="M426.1,506.9"/>
<path d="M476.4,374"/>
<path class="st11" d="M578.3,445.5"/>
<circle class="st9" cx="400.1" cy="464.2" r="43.5"/>
<path class="st12" d="M393.1,464.7H410c0,0,0,9.8,0,23.5c-7.8,14.5-16.8,0-16.8,0V464.7z"/>
<circle class="st7" cx="401.4" cy="453.2" r="14.3"/>
<circle class="st13" cx="401.6" cy="452.9" r="11.3"/>
<path class="st7" d="M400.1,451.9c-4.8-1.5-2.8-5-2.8-8.8c0-3.8,10.2,1.6,8.7-0.6c-0.6-0.9,3.9,7.3-1.9,9.2
	C396.4,454.2,404.9,453.4,400.1,451.9z"/>
<polygon class="st14" points="397.4,441.6 405.4,441.6 404.1,443.1 404.4,443.9 403.6,444.9 401.6,446.1 401.6,447.4 403.9,448.4 
	404.1,451.7 403.9,454.2 402.9,454.2 402.9,457.9 401.1,457.9 401.4,452.2 402.1,452.2 401.9,449.9 399.4,448.4 400.1,443.6 "/>
</svg>
